MODULE: app
    by Facet:
        main (IDEA)
            ScopeType: MAIN
            ManifestFileUrls:
                file://./app/src/main/AndroidManifest.xml
            ManifestFiles:
                file://./app/src/main/AndroidManifest.xml
            ManifestDirectoryUrls:
                file://./app/src/main
            ManifestDirectories:
                file://./app/src/main
            AidlDirectoryUrls:
                file://./app/src/main/aidl
            AssetsDirectoryUrls:
                file://./app/src/main/assets
            JavaDirectoryUrls:
                file://./app/src/main/java
            JavaDirectories:
                file://./app/src/main/java
            JniLibsDirectoryUrls:
                file://./app/src/main/jniLibs
            RenderscriptDirectoryUrls:
                file://./app/src/main/rs
            ResDirectoryUrls:
                file://./app/src/main/res
            ResDirectories:
                file://./app/src/main/res
            ResourcesDirectoryUrls:
                file://./app/src/main/resources
            ShadersDirectoryUrls:
                file://./app/src/main/shaders
            MlModelsDirectoryUrls:
                file://./app/src/main/ml
    by AndroidModel:
        main
            Manifest:
                ./app/src/main/AndroidManifest.xml
            AidlDirectories:
                ./app/src/main/aidl
            AssetsDirectories:
                ./app/src/main/assets
            CDirectories:
                ./app/src/main/jni
            CppDirectories:
                ./app/src/main/jni
            JavaDirectories:
                ./app/src/main/java
            JniLibsDirectories:
                ./app/src/main/jniLibs
            RenderscriptDirectories:
                ./app/src/main/rs
            ResDirectories:
                ./app/src/main/res
            ResourcesDirectories:
                ./app/src/main/resources
            ShadersDirectories:
                ./app/src/main/shaders
            MlModelsDirectories:
                ./app/src/main/ml
        Active:
            main
                Manifest:
                    ./app/src/main/AndroidManifest.xml
                AidlDirectories:
                    ./app/src/main/aidl
                AssetsDirectories:
                    ./app/src/main/assets
                CDirectories:
                    ./app/src/main/jni
                CppDirectories:
                    ./app/src/main/jni
                JavaDirectories:
                    ./app/src/main/java
                JniLibsDirectories:
                    ./app/src/main/jniLibs
                RenderscriptDirectories:
                    ./app/src/main/rs
                ResDirectories:
                    ./app/src/main/res
                ResourcesDirectories:
                    ./app/src/main/resources
                ShadersDirectories:
                    ./app/src/main/shaders
                MlModelsDirectories:
                    ./app/src/main/ml
            debug
                Manifest:
                    ./app/src/debug/AndroidManifest.xml
                AidlDirectories:
                    ./app/src/debug/aidl
                AssetsDirectories:
                    ./app/src/debug/assets
                CDirectories:
                    ./app/src/debug/jni
                CppDirectories:
                    ./app/src/debug/jni
                JavaDirectories:
                    ./app/src/debug/java
                JniLibsDirectories:
                    ./app/src/debug/jniLibs
                RenderscriptDirectories:
                    ./app/src/debug/rs
                ResDirectories:
                    ./app/src/debug/res
                ResourcesDirectories:
                    ./app/src/debug/resources
                ShadersDirectories:
                    ./app/src/debug/shaders
                MlModelsDirectories:
                    ./app/src/debug/ml
        All:
            main
                Manifest:
                    ./app/src/main/AndroidManifest.xml
                AidlDirectories:
                    ./app/src/main/aidl
                AssetsDirectories:
                    ./app/src/main/assets
                CDirectories:
                    ./app/src/main/jni
                CppDirectories:
                    ./app/src/main/jni
                JavaDirectories:
                    ./app/src/main/java
                JniLibsDirectories:
                    ./app/src/main/jniLibs
                RenderscriptDirectories:
                    ./app/src/main/rs
                ResDirectories:
                    ./app/src/main/res
                ResourcesDirectories:
                    ./app/src/main/resources
                ShadersDirectories:
                    ./app/src/main/shaders
                MlModelsDirectories:
                    ./app/src/main/ml
            debug
                Manifest:
                    ./app/src/debug/AndroidManifest.xml
                AidlDirectories:
                    ./app/src/debug/aidl
                AssetsDirectories:
                    ./app/src/debug/assets
                CDirectories:
                    ./app/src/debug/jni
                CppDirectories:
                    ./app/src/debug/jni
                JavaDirectories:
                    ./app/src/debug/java
                JniLibsDirectories:
                    ./app/src/debug/jniLibs
                RenderscriptDirectories:
                    ./app/src/debug/rs
                ResDirectories:
                    ./app/src/debug/res
                ResourcesDirectories:
                    ./app/src/debug/resources
                ShadersDirectories:
                    ./app/src/debug/shaders
                MlModelsDirectories:
                    ./app/src/debug/ml
            release
                Manifest:
                    ./app/src/release/AndroidManifest.xml
                AidlDirectories:
                    ./app/src/release/aidl
                AssetsDirectories:
                    ./app/src/release/assets
                CDirectories:
                    ./app/src/release/jni
                CppDirectories:
                    ./app/src/release/jni
                JavaDirectories:
                    ./app/src/release/java
                JniLibsDirectories:
                    ./app/src/release/jniLibs
                RenderscriptDirectories:
                    ./app/src/release/rs
                ResDirectories:
                    ./app/src/release/res
                ResourcesDirectories:
                    ./app/src/release/resources
                ShadersDirectories:
                    ./app/src/release/shaders
                MlModelsDirectories:
                    ./app/src/release/ml
        UnitTest:
            test
                Manifest:
                    ./app/src/test/AndroidManifest.xml
                AidlDirectories:
                    ./app/src/test/aidl
                AssetsDirectories:
                    ./app/src/test/assets
                CDirectories:
                    ./app/src/test/jni
                CppDirectories:
                    ./app/src/test/jni
                JavaDirectories:
                    ./app/src/test/java
                JniLibsDirectories:
                    ./app/src/test/jniLibs
                RenderscriptDirectories:
                    ./app/src/test/rs
                ResDirectories:
                    ./app/src/test/res
                ResourcesDirectories:
                    ./app/src/test/resources
                ShadersDirectories:
                    ./app/src/test/shaders
                MlModelsDirectories:
                    ./app/src/test/ml
            testDebug
                Manifest:
                    ./app/src/testDebug/AndroidManifest.xml
                AidlDirectories:
                    ./app/src/testDebug/aidl
                AssetsDirectories:
                    ./app/src/testDebug/assets
                CDirectories:
                    ./app/src/testDebug/jni
                CppDirectories:
                    ./app/src/testDebug/jni
                JavaDirectories:
                    ./app/src/testDebug/java
                JniLibsDirectories:
                    ./app/src/testDebug/jniLibs
                RenderscriptDirectories:
                    ./app/src/testDebug/rs
                ResDirectories:
                    ./app/src/testDebug/res
                ResourcesDirectories:
                    ./app/src/testDebug/resources
                ShadersDirectories:
                    ./app/src/testDebug/shaders
                MlModelsDirectories:
                    ./app/src/testDebug/ml
        AndroidTest:
            androidTest
                Manifest:
                    ./app/src/androidTest/AndroidManifest.xml
                AidlDirectories:
                    ./app/src/androidTest/aidl
                AssetsDirectories:
                    ./app/src/androidTest/assets
                CDirectories:
                    ./app/src/androidTest/jni
                CppDirectories:
                    ./app/src/androidTest/jni
                JavaDirectories:
                    ./app/src/androidTest/java
                JniLibsDirectories:
                    ./app/src/androidTest/jniLibs
                RenderscriptDirectories:
                    ./app/src/androidTest/rs
                ResDirectories:
                    ./app/src/androidTest/res
                ResourcesDirectories:
                    ./app/src/androidTest/resources
                ShadersDirectories:
                    ./app/src/androidTest/shaders
                MlModelsDirectories:
                    ./app/src/androidTest/ml
            androidTestDebug
                Manifest:
                    ./app/src/androidTestDebug/AndroidManifest.xml
                AidlDirectories:
                    ./app/src/androidTestDebug/aidl
                AssetsDirectories:
                    ./app/src/androidTestDebug/assets
                CDirectories:
                    ./app/src/androidTestDebug/jni
                CppDirectories:
                    ./app/src/androidTestDebug/jni
                JavaDirectories:
                    ./app/src/androidTestDebug/java
                JniLibsDirectories:
                    ./app/src/androidTestDebug/jniLibs
                RenderscriptDirectories:
                    ./app/src/androidTestDebug/rs
                ResDirectories:
                    ./app/src/androidTestDebug/res
                ResourcesDirectories:
                    ./app/src/androidTestDebug/resources
                ShadersDirectories:
                    ./app/src/androidTestDebug/shaders
                MlModelsDirectories:
                    ./app/src/androidTestDebug/ml
    by IdeaSourceProviders:
        Manifests:
            file://./app/src/main/AndroidManifest.xml
        Sources:
            Sources (IDEA)
                ScopeType: MAIN
                ManifestFileUrls:
                    file://./app/src/main/AndroidManifest.xml
                    file://./app/src/debug/AndroidManifest.xml
                ManifestFiles:
                    file://./app/src/main/AndroidManifest.xml
                ManifestDirectoryUrls:
                    file://./app/src/main
                    file://./app/src/debug
                ManifestDirectories:
                    file://./app/src/main
                AidlDirectoryUrls:
                    file://./app/src/main/aidl
                    file://./app/src/debug/aidl
                AssetsDirectoryUrls:
                    file://./app/src/main/assets
                    file://./app/src/debug/assets
                JavaDirectoryUrls:
                    file://./app/src/main/java
                    file://./app/src/debug/java
                JavaDirectories:
                    file://./app/src/main/java
                JniLibsDirectoryUrls:
                    file://./app/src/main/jniLibs
                    file://./app/src/debug/jniLibs
                RenderscriptDirectoryUrls:
                    file://./app/src/main/rs
                    file://./app/src/debug/rs
                ResDirectoryUrls:
                    file://./app/src/main/res
                    file://./app/src/debug/res
                ResDirectories:
                    file://./app/src/main/res
                ResourcesDirectoryUrls:
                    file://./app/src/main/resources
                    file://./app/src/debug/resources
                ShadersDirectoryUrls:
                    file://./app/src/main/shaders
                    file://./app/src/debug/shaders
                MlModelsDirectoryUrls:
                    file://./app/src/main/ml
                    file://./app/src/debug/ml
        UnitTestSources:
            UnitTestSources (IDEA)
                ScopeType: UNIT_TEST
                ManifestFileUrls:
                    file://./app/src/test/AndroidManifest.xml
                    file://./app/src/testDebug/AndroidManifest.xml
                ManifestDirectoryUrls:
                    file://./app/src/test
                    file://./app/src/testDebug
                ManifestDirectories:
                    file://./app/src/test
                AidlDirectoryUrls:
                    file://./app/src/test/aidl
                    file://./app/src/testDebug/aidl
                AssetsDirectoryUrls:
                    file://./app/src/test/assets
                    file://./app/src/testDebug/assets
                JavaDirectoryUrls:
                    file://./app/src/test/java
                    file://./app/src/testDebug/java
                JavaDirectories:
                    file://./app/src/test/java
                JniLibsDirectoryUrls:
                    file://./app/src/test/jniLibs
                    file://./app/src/testDebug/jniLibs
                RenderscriptDirectoryUrls:
                    file://./app/src/test/rs
                    file://./app/src/testDebug/rs
                ResDirectoryUrls:
                    file://./app/src/test/res
                    file://./app/src/testDebug/res
                ResourcesDirectoryUrls:
                    file://./app/src/test/resources
                    file://./app/src/testDebug/resources
                ShadersDirectoryUrls:
                    file://./app/src/test/shaders
                    file://./app/src/testDebug/shaders
                MlModelsDirectoryUrls:
                    file://./app/src/test/ml
                    file://./app/src/testDebug/ml
        AndroidTestSources:
            AndroidTestSources (IDEA)
                ScopeType: ANDROID_TEST
                ManifestFileUrls:
                    file://./app/src/androidTest/AndroidManifest.xml
                    file://./app/src/androidTestDebug/AndroidManifest.xml
                ManifestDirectoryUrls:
                    file://./app/src/androidTest
                    file://./app/src/androidTestDebug
                ManifestDirectories:
                    file://./app/src/androidTest
                AidlDirectoryUrls:
                    file://./app/src/androidTest/aidl
                    file://./app/src/androidTestDebug/aidl
                AssetsDirectoryUrls:
                    file://./app/src/androidTest/assets
                    file://./app/src/androidTestDebug/assets
                JavaDirectoryUrls:
                    file://./app/src/androidTest/java
                    file://./app/src/androidTestDebug/java
                JavaDirectories:
                    file://./app/src/androidTest/java
                JniLibsDirectoryUrls:
                    file://./app/src/androidTest/jniLibs
                    file://./app/src/androidTestDebug/jniLibs
                RenderscriptDirectoryUrls:
                    file://./app/src/androidTest/rs
                    file://./app/src/androidTestDebug/rs
                ResDirectoryUrls:
                    file://./app/src/androidTest/res
                    file://./app/src/androidTestDebug/res
                ResourcesDirectoryUrls:
                    file://./app/src/androidTest/resources
                    file://./app/src/androidTestDebug/resources
                ShadersDirectoryUrls:
                    file://./app/src/androidTest/shaders
                    file://./app/src/androidTestDebug/shaders
                MlModelsDirectoryUrls:
                    file://./app/src/androidTest/ml
                    file://./app/src/androidTestDebug/ml
        CurrentAndSomeFrequentlyUsedInactiveSourceProviders:
            main (IDEA)
                ScopeType: MAIN
                ManifestFileUrls:
                    file://./app/src/main/AndroidManifest.xml
                ManifestFiles:
                    file://./app/src/main/AndroidManifest.xml
                ManifestDirectoryUrls:
                    file://./app/src/main
                ManifestDirectories:
                    file://./app/src/main
                AidlDirectoryUrls:
                    file://./app/src/main/aidl
                AssetsDirectoryUrls:
                    file://./app/src/main/assets
                JavaDirectoryUrls:
                    file://./app/src/main/java
                JavaDirectories:
                    file://./app/src/main/java
                JniLibsDirectoryUrls:
                    file://./app/src/main/jniLibs
                RenderscriptDirectoryUrls:
                    file://./app/src/main/rs
                ResDirectoryUrls:
                    file://./app/src/main/res
                ResDirectories:
                    file://./app/src/main/res
                ResourcesDirectoryUrls:
                    file://./app/src/main/resources
                ShadersDirectoryUrls:
                    file://./app/src/main/shaders
                MlModelsDirectoryUrls:
                    file://./app/src/main/ml
            debug (IDEA)
                ScopeType: MAIN
                ManifestFileUrls:
                    file://./app/src/debug/AndroidManifest.xml
                ManifestDirectoryUrls:
                    file://./app/src/debug
                AidlDirectoryUrls:
                    file://./app/src/debug/aidl
                AssetsDirectoryUrls:
                    file://./app/src/debug/assets
                JavaDirectoryUrls:
                    file://./app/src/debug/java
                JniLibsDirectoryUrls:
                    file://./app/src/debug/jniLibs
                RenderscriptDirectoryUrls:
                    file://./app/src/debug/rs
                ResDirectoryUrls:
                    file://./app/src/debug/res
                ResourcesDirectoryUrls:
                    file://./app/src/debug/resources
                ShadersDirectoryUrls:
                    file://./app/src/debug/shaders
                MlModelsDirectoryUrls:
                    file://./app/src/debug/ml
            release (IDEA)
                ScopeType: MAIN
                ManifestFileUrls:
                    file://./app/src/release/AndroidManifest.xml
                ManifestDirectoryUrls:
                    file://./app/src/release
                AidlDirectoryUrls:
                    file://./app/src/release/aidl
                AssetsDirectoryUrls:
                    file://./app/src/release/assets
                JavaDirectoryUrls:
                    file://./app/src/release/java
                JniLibsDirectoryUrls:
                    file://./app/src/release/jniLibs
                RenderscriptDirectoryUrls:
                    file://./app/src/release/rs
                ResDirectoryUrls:
                    file://./app/src/release/res
                ResourcesDirectoryUrls:
                    file://./app/src/release/resources
                ShadersDirectoryUrls:
                    file://./app/src/release/shaders
                MlModelsDirectoryUrls:
                    file://./app/src/release/ml
        CurrentSourceProviders:
            main (IDEA)
                ScopeType: MAIN
                ManifestFileUrls:
                    file://./app/src/main/AndroidManifest.xml
                ManifestFiles:
                    file://./app/src/main/AndroidManifest.xml
                ManifestDirectoryUrls:
                    file://./app/src/main
                ManifestDirectories:
                    file://./app/src/main
                AidlDirectoryUrls:
                    file://./app/src/main/aidl
                AssetsDirectoryUrls:
                    file://./app/src/main/assets
                JavaDirectoryUrls:
                    file://./app/src/main/java
                JavaDirectories:
                    file://./app/src/main/java
                JniLibsDirectoryUrls:
                    file://./app/src/main/jniLibs
                RenderscriptDirectoryUrls:
                    file://./app/src/main/rs
                ResDirectoryUrls:
                    file://./app/src/main/res
                ResDirectories:
                    file://./app/src/main/res
                ResourcesDirectoryUrls:
                    file://./app/src/main/resources
                ShadersDirectoryUrls:
                    file://./app/src/main/shaders
                MlModelsDirectoryUrls:
                    file://./app/src/main/ml
            debug (IDEA)
                ScopeType: MAIN
                ManifestFileUrls:
                    file://./app/src/debug/AndroidManifest.xml
                ManifestDirectoryUrls:
                    file://./app/src/debug
                AidlDirectoryUrls:
                    file://./app/src/debug/aidl
                AssetsDirectoryUrls:
                    file://./app/src/debug/assets
                JavaDirectoryUrls:
                    file://./app/src/debug/java
                JniLibsDirectoryUrls:
                    file://./app/src/debug/jniLibs
                RenderscriptDirectoryUrls:
                    file://./app/src/debug/rs
                ResDirectoryUrls:
                    file://./app/src/debug/res
                ResourcesDirectoryUrls:
                    file://./app/src/debug/resources
                ShadersDirectoryUrls:
                    file://./app/src/debug/shaders
                MlModelsDirectoryUrls:
                    file://./app/src/debug/ml
        CurrentUnitTestSourceProviders:
            test (IDEA)
                ScopeType: UNIT_TEST
                ManifestFileUrls:
                    file://./app/src/test/AndroidManifest.xml
                ManifestDirectoryUrls:
                    file://./app/src/test
                ManifestDirectories:
                    file://./app/src/test
                AidlDirectoryUrls:
                    file://./app/src/test/aidl
                AssetsDirectoryUrls:
                    file://./app/src/test/assets
                JavaDirectoryUrls:
                    file://./app/src/test/java
                JavaDirectories:
                    file://./app/src/test/java
                JniLibsDirectoryUrls:
                    file://./app/src/test/jniLibs
                RenderscriptDirectoryUrls:
                    file://./app/src/test/rs
                ResDirectoryUrls:
                    file://./app/src/test/res
                ResourcesDirectoryUrls:
                    file://./app/src/test/resources
                ShadersDirectoryUrls:
                    file://./app/src/test/shaders
                MlModelsDirectoryUrls:
                    file://./app/src/test/ml
            testDebug (IDEA)
                ScopeType: UNIT_TEST
                ManifestFileUrls:
                    file://./app/src/testDebug/AndroidManifest.xml
                ManifestDirectoryUrls:
                    file://./app/src/testDebug
                AidlDirectoryUrls:
                    file://./app/src/testDebug/aidl
                AssetsDirectoryUrls:
                    file://./app/src/testDebug/assets
                JavaDirectoryUrls:
                    file://./app/src/testDebug/java
                JniLibsDirectoryUrls:
                    file://./app/src/testDebug/jniLibs
                RenderscriptDirectoryUrls:
                    file://./app/src/testDebug/rs
                ResDirectoryUrls:
                    file://./app/src/testDebug/res
                ResourcesDirectoryUrls:
                    file://./app/src/testDebug/resources
                ShadersDirectoryUrls:
                    file://./app/src/testDebug/shaders
                MlModelsDirectoryUrls:
                    file://./app/src/testDebug/ml
        CurrentAndroidTestSourceProviders:
            androidTest (IDEA)
                ScopeType: ANDROID_TEST
                ManifestFileUrls:
                    file://./app/src/androidTest/AndroidManifest.xml
                ManifestDirectoryUrls:
                    file://./app/src/androidTest
                ManifestDirectories:
                    file://./app/src/androidTest
                AidlDirectoryUrls:
                    file://./app/src/androidTest/aidl
                AssetsDirectoryUrls:
                    file://./app/src/androidTest/assets
                JavaDirectoryUrls:
                    file://./app/src/androidTest/java
                JavaDirectories:
                    file://./app/src/androidTest/java
                JniLibsDirectoryUrls:
                    file://./app/src/androidTest/jniLibs
                RenderscriptDirectoryUrls:
                    file://./app/src/androidTest/rs
                ResDirectoryUrls:
                    file://./app/src/androidTest/res
                ResourcesDirectoryUrls:
                    file://./app/src/androidTest/resources
                ShadersDirectoryUrls:
                    file://./app/src/androidTest/shaders
                MlModelsDirectoryUrls:
                    file://./app/src/androidTest/ml
            androidTestDebug (IDEA)
                ScopeType: ANDROID_TEST
                ManifestFileUrls:
                    file://./app/src/androidTestDebug/AndroidManifest.xml
                ManifestDirectoryUrls:
                    file://./app/src/androidTestDebug
                AidlDirectoryUrls:
                    file://./app/src/androidTestDebug/aidl
                AssetsDirectoryUrls:
                    file://./app/src/androidTestDebug/assets
                JavaDirectoryUrls:
                    file://./app/src/androidTestDebug/java
                JniLibsDirectoryUrls:
                    file://./app/src/androidTestDebug/jniLibs
                RenderscriptDirectoryUrls:
                    file://./app/src/androidTestDebug/rs
                ResDirectoryUrls:
                    file://./app/src/androidTestDebug/res
                ResourcesDirectoryUrls:
                    file://./app/src/androidTestDebug/resources
                ShadersDirectoryUrls:
                    file://./app/src/androidTestDebug/shaders
                MlModelsDirectoryUrls:
                    file://./app/src/androidTestDebug/ml
MODULE: testWithBuildSrc
MODULE: testWithBuildSrc_buildSrc
MODULE: testWithBuildSrc_lib1
MODULE: testWithBuildSrc_lib2