PROJECT             : testLightTestsWithDefaultTestProjectStructureForAndroidTestCase
    LanguageLevel       : 8 - Lambdas, type annotations etc.
    PROJECT_JDK         : 1.8
        Version             : java version "<JDK_VERSION>"
    MODULE              : testLightTestsWithDefaultTestProjectStructureForAndroidTestCase
        LinkedProjectId     : testLightTestsWithDefaultTestProjectStructureForAndroidTestCase
        LinkedProjectPath   : <TEMP>
        RootProjectPath     : <TEMP>
        COMPILER_MODULE_EXTENSION
            compilerSourceOutputPath      : file://<TEMP>/build/intermediates/javac/debug/classes [-]
            compilerTestOutputPath        : file://<TEMP>/build/intermediates/javac/debugUnitTest/classes [-]
            isCompilerPathInherited       : false
            isExcludeOutput     : true
        ModuleFile          : <TEMP>/testLightTestsWithDefaultTestProjectStructureForAndroidTestCase.iml
        ModuleTypeName      : JAVA_MODULE
        FACET               : Android
            TypeId              : android
            SelectedBuildVariant          : debug
            AssembleTaskName    : assembleDebug
            CompileJavaTaskName : compileDebugSources
            - AfterSyncTask     : ideSetupTask1
            - AfterSyncTask     : ideSetupTask2
            AllowUserConfiguration        : false
            GenFolderRelativePathApt      : /gen
            GenFolderRelativePathAidl     : /gen
            ManifestFileRelativePath      : /AndroidManifest.xml
            ResFolderRelativePath         : /res
            - ResFoldersRelativePath      : file://<TEMP>/res
            - ResFoldersRelativePath      : file://<TEMP>/src/debug/res [-]
            - TestResFoldersRelativePath  :  [-]
            LibsFolderRelativePath        : /libs
            UseCustomApkResourceFolder    : false
            UseCustomCompilerManifest     : false
            ProjectType         : 0
            RunProcessResourcesMavenTask  : true
            PackTestCode        : false
            RunProguard         : false
            ProguardLogsFolderRelativePath          : /proguard_logs
            UseCustomManifestPackage      : false
            EnableManifestMerging         : false
            EnablePreDexing     : true
            CompileCustomGeneratedSources : true
            EnableSourcesAutogeneration   : true
            EnableMultiDex      : false
            MinimalMainDex      : false
            IncludeAssetsFromLibraries    : false
            - ProGuardCfgFiles  : file://%MODULE_SDK_HOME%/tools/proguard/proguard-android.txt
        FACET               : Android-Gradle
            TypeId              : android-gradle
            ExternalSource      : GRADLE
            GradlePath          : :
        CONENT_ENTRY        : file://<TEMP>
            JavaResource        : file://<TEMP>
            JavaResource        : file://<TEMP>/res
            JavaSource          : file://<TEMP>/src
        JDK                 : <NAME_CUT> Android SDK
        *isInherited        : false
            SdkType             : Android SDK
            HomePath            : <ANDROID_SDK>
            VersionString       : java version "<JDK_VERSION>"
        ORDER_ENTRY         : <Module source>