PROJECT             : MultiFlavor
    LanguageLevel       : 8 - Lambdas, type annotations etc.
    PROJECT_JDK         : 1.8
        Version             : java version "<JDK_VERSION>"
    MODULE              : MultiFlavor
        - ModuleGroupPath   : MultiFlavor
        ExternalModuleGroup :
        ExternalModuleVersion         : unspecified
        LinkedProjectId     : MultiFlavor
        LinkedProjectPath   : <PROJECT>
        RootProjectPath     : <PROJECT>
        COMPILER_MODULE_EXTENSION
            compilerSourceOutputPath      : file://<PROJECT>/build/classes/production/MultiFlavor [-]
            compilerTestOutputPath        : file://<PROJECT>/build/classes/test/MultiFlavor [-]
            isCompilerPathInherited       : true
            isExcludeOutput     : true
        ModuleFile          : <PROJECT>/.idea/modules/MultiFlavor.iml [-]
        ModuleTypeName      : JAVA_MODULE
        FACET               : Java-Gradle
            TypeId              : java-gradle
            ExternalSource      : GRADLE
            Buildable           : false
            BuildFolderPath     : <PROJECT>/build [-]
        CONENT_ENTRY        : file://<PROJECT>
            EXCLUDE_FOLDER      : file://<PROJECT>/.gradle
            EXCLUDE_FOLDER      : file://<PROJECT>/build [-]
        JDK                 : <NAME_CUT> JavaSDK
        *isInherited        : true
        ORDER_ENTRY         : <Module source>
    MODULE              : app
        - ModuleGroupPath   : MultiFlavor
        - ModuleGroupPath   : app
        ExternalModuleGroup : MultiFlavor
        ExternalModuleVersion         : unspecified
        LinkedProjectId     : :app
        LinkedProjectPath   : <PROJECT>/app
        RootProjectPath     : <PROJECT>
        COMPILER_MODULE_EXTENSION
            compilerSourceOutputPath      : file://<PROJECT>/app/build/intermediates/javac/firstAbcSecondAbcDebug/classes [-]
            compilerTestOutputPath        : file://<PROJECT>/app/build/intermediates/javac/firstAbcSecondAbcDebugUnitTest/classes [-]
            isCompilerPathInherited       : false
            isExcludeOutput     : true
        ModuleFile          : <PROJECT>/.idea/modules/app/app.iml [-]
        ModuleTypeName      : JAVA_MODULE
        FACET               : Android
            TypeId              : android
            ExternalSource      : GRADLE
            SelectedBuildVariant          : firstAbcSecondAbcDebug
            AssembleTaskName    : assembleFirstAbcSecondAbcDebug
            CompileJavaTaskName : compileFirstAbcSecondAbcDebugSources
            - AfterSyncTask     : generateFirstAbcSecondAbcDebugSources
            AllowUserConfiguration        : false
            GenFolderRelativePathApt      : /gen
            GenFolderRelativePathAidl     : /gen
            ManifestFileRelativePath      : /src/main/AndroidManifest.xml
            ResFolderRelativePath         : /src/main/res
            - ResFoldersRelativePath      : file://<PROJECT>/app/src/main/res
            - ResFoldersRelativePath      : file://<PROJECT>/app/src/firstAbc/res
            - ResFoldersRelativePath      : file://<PROJECT>/app/src/secondAbc/res
            - ResFoldersRelativePath      : file://<PROJECT>/app/src/firstAbcSecondAbc/res
            - ResFoldersRelativePath      : file://<PROJECT>/app/src/debug/res
            - ResFoldersRelativePath      : file://<PROJECT>/app/src/firstAbcSecondAbcDebug/res
            - ResFoldersRelativePath      : file://<PROJECT>/app/build/generated/res/rs/firstAbcSecondAbc/debug
            - TestResFoldersRelativePath  : file://<PROJECT>/app/src/androidTest/res
            - TestResFoldersRelativePath  : file://<PROJECT>/app/src/androidTestFirstAbc/res
            - TestResFoldersRelativePath  : file://<PROJECT>/app/src/androidTestSecondAbc/res
            - TestResFoldersRelativePath  : file://<PROJECT>/app/src/androidTestFirstAbcSecondAbc/res
            - TestResFoldersRelativePath  : file://<PROJECT>/app/src/androidTestDebug/res
            - TestResFoldersRelativePath  : file://<PROJECT>/app/src/androidTestFirstAbcSecondAbcDebug/res
            - TestResFoldersRelativePath  : file://<PROJECT>/app/build/generated/res/rs/androidTest/firstAbcSecondAbc/debug
            AssetsFolderRelativePath      : /src/main/assets
            LibsFolderRelativePath        : /libs
            UseCustomApkResourceFolder    : false
            UseCustomCompilerManifest     : false
            ProjectType         : 0
            RunProcessResourcesMavenTask  : true
            PackTestCode        : false
            RunProguard         : false
            ProguardLogsFolderRelativePath          : /proguard_logs
            UseCustomManifestPackage      : false
            EnableManifestMerging         : false
            EnablePreDexing     : true
            CompileCustomGeneratedSources : true
            EnableSourcesAutogeneration   : true
            EnableMultiDex      : false
            MinimalMainDex      : false
            IncludeAssetsFromLibraries    : false
            - ProGuardCfgFiles  : file://%MODULE_SDK_HOME%/tools/proguard/proguard-android.txt
        FACET               : Android-Gradle
            TypeId              : android-gradle
            ExternalSource      : GRADLE
            GradlePath          : :app
        CONENT_ENTRY        : file://<PROJECT>/app
            JavaSource          : file://<PROJECT>/app/build/generated/aidl_source_output_dir/firstAbcSecondAbcDebug/out
            JavaSource (test)   : file://<PROJECT>/app/build/generated/aidl_source_output_dir/firstAbcSecondAbcDebugAndroidTest/out
            JavaSource          : file://<PROJECT>/app/build/generated/ap_generated_sources/firstAbcSecondAbcDebug/out
            JavaSource (test)   : file://<PROJECT>/app/build/generated/ap_generated_sources/firstAbcSecondAbcDebugAndroidTest/out
            JavaSource (test)   : file://<PROJECT>/app/build/generated/ap_generated_sources/firstAbcSecondAbcDebugUnitTest/out
            JavaSource          : file://<PROJECT>/app/build/generated/renderscript_source_output_dir/firstAbcSecondAbcDebug/out
            JavaSource (test)   : file://<PROJECT>/app/build/generated/renderscript_source_output_dir/firstAbcSecondAbcDebugAndroidTest/out
            JavaResource (test) : file://<PROJECT>/app/build/generated/res/rs/androidTest/firstAbcSecondAbc/debug
            JavaResource        : file://<PROJECT>/app/build/generated/res/rs/firstAbcSecondAbc/debug
            JavaSource (test)   : file://<PROJECT>/app/build/generated/source/buildConfig/androidTest/firstAbcSecondAbc/debug
            JavaSource          : file://<PROJECT>/app/build/generated/source/buildConfig/firstAbcSecondAbc/debug
            JavaResource (test) : file://<PROJECT>/app/src/androidTest
            JavaSource (test)   : file://<PROJECT>/app/src/androidTest/aidl
            JavaResource (test) : file://<PROJECT>/app/src/androidTest/assets
            JavaSource (test)   : file://<PROJECT>/app/src/androidTest/java
            JavaSource (test)   : file://<PROJECT>/app/src/androidTest/jni
            JavaResource (test) : file://<PROJECT>/app/src/androidTest/res
            JavaResource (test) : file://<PROJECT>/app/src/androidTest/resources
            JavaSource (test)   : file://<PROJECT>/app/src/androidTest/rs
            JavaSource (test)   : file://<PROJECT>/app/src/androidTest/shaders
            JavaResource (test) : file://<PROJECT>/app/src/androidTestDebug
            JavaSource (test)   : file://<PROJECT>/app/src/androidTestDebug/aidl
            JavaResource (test) : file://<PROJECT>/app/src/androidTestDebug/assets
            JavaSource (test)   : file://<PROJECT>/app/src/androidTestDebug/java
            JavaSource (test)   : file://<PROJECT>/app/src/androidTestDebug/jni
            JavaResource (test) : file://<PROJECT>/app/src/androidTestDebug/res
            JavaResource (test) : file://<PROJECT>/app/src/androidTestDebug/resources
            JavaSource (test)   : file://<PROJECT>/app/src/androidTestDebug/rs
            JavaSource (test)   : file://<PROJECT>/app/src/androidTestDebug/shaders
            JavaResource (test) : file://<PROJECT>/app/src/androidTestFirstAbc
            JavaSource (test)   : file://<PROJECT>/app/src/androidTestFirstAbc/aidl
            JavaResource (test) : file://<PROJECT>/app/src/androidTestFirstAbc/assets
            JavaSource (test)   : file://<PROJECT>/app/src/androidTestFirstAbc/java
            JavaSource (test)   : file://<PROJECT>/app/src/androidTestFirstAbc/jni
            JavaResource (test) : file://<PROJECT>/app/src/androidTestFirstAbc/res
            JavaResource (test) : file://<PROJECT>/app/src/androidTestFirstAbc/resources
            JavaSource (test)   : file://<PROJECT>/app/src/androidTestFirstAbc/rs
            JavaSource (test)   : file://<PROJECT>/app/src/androidTestFirstAbc/shaders
            JavaResource (test) : file://<PROJECT>/app/src/androidTestFirstAbcSecondAbc
            JavaSource (test)   : file://<PROJECT>/app/src/androidTestFirstAbcSecondAbc/aidl
            JavaResource (test) : file://<PROJECT>/app/src/androidTestFirstAbcSecondAbc/assets
            JavaSource (test)   : file://<PROJECT>/app/src/androidTestFirstAbcSecondAbc/java
            JavaSource (test)   : file://<PROJECT>/app/src/androidTestFirstAbcSecondAbc/jni
            JavaResource (test) : file://<PROJECT>/app/src/androidTestFirstAbcSecondAbc/res
            JavaResource (test) : file://<PROJECT>/app/src/androidTestFirstAbcSecondAbc/resources
            JavaSource (test)   : file://<PROJECT>/app/src/androidTestFirstAbcSecondAbc/rs
            JavaSource (test)   : file://<PROJECT>/app/src/androidTestFirstAbcSecondAbc/shaders
            JavaResource (test) : file://<PROJECT>/app/src/androidTestFirstAbcSecondAbcDebug
            JavaSource (test)   : file://<PROJECT>/app/src/androidTestFirstAbcSecondAbcDebug/aidl
            JavaResource (test) : file://<PROJECT>/app/src/androidTestFirstAbcSecondAbcDebug/assets
            JavaSource (test)   : file://<PROJECT>/app/src/androidTestFirstAbcSecondAbcDebug/java
            JavaSource (test)   : file://<PROJECT>/app/src/androidTestFirstAbcSecondAbcDebug/jni
            JavaResource (test) : file://<PROJECT>/app/src/androidTestFirstAbcSecondAbcDebug/res
            JavaResource (test) : file://<PROJECT>/app/src/androidTestFirstAbcSecondAbcDebug/resources
            JavaSource (test)   : file://<PROJECT>/app/src/androidTestFirstAbcSecondAbcDebug/rs
            JavaSource (test)   : file://<PROJECT>/app/src/androidTestFirstAbcSecondAbcDebug/shaders
            JavaResource (test) : file://<PROJECT>/app/src/androidTestSecondAbc
            JavaSource (test)   : file://<PROJECT>/app/src/androidTestSecondAbc/aidl
            JavaResource (test) : file://<PROJECT>/app/src/androidTestSecondAbc/assets
            JavaSource (test)   : file://<PROJECT>/app/src/androidTestSecondAbc/java
            JavaSource (test)   : file://<PROJECT>/app/src/androidTestSecondAbc/jni
            JavaResource (test) : file://<PROJECT>/app/src/androidTestSecondAbc/res
            JavaResource (test) : file://<PROJECT>/app/src/androidTestSecondAbc/resources
            JavaSource (test)   : file://<PROJECT>/app/src/androidTestSecondAbc/rs
            JavaSource (test)   : file://<PROJECT>/app/src/androidTestSecondAbc/shaders
            JavaResource        : file://<PROJECT>/app/src/debug
            JavaSource          : file://<PROJECT>/app/src/debug/aidl
            JavaResource        : file://<PROJECT>/app/src/debug/assets
            JavaSource          : file://<PROJECT>/app/src/debug/java
            JavaSource          : file://<PROJECT>/app/src/debug/jni
            JavaResource        : file://<PROJECT>/app/src/debug/res
            JavaResource        : file://<PROJECT>/app/src/debug/resources
            JavaSource          : file://<PROJECT>/app/src/debug/rs
            JavaSource          : file://<PROJECT>/app/src/debug/shaders
            JavaResource        : file://<PROJECT>/app/src/firstAbc
            JavaSource          : file://<PROJECT>/app/src/firstAbc/aidl
            JavaResource        : file://<PROJECT>/app/src/firstAbc/assets
            JavaSource          : file://<PROJECT>/app/src/firstAbc/java
            JavaSource          : file://<PROJECT>/app/src/firstAbc/jni
            JavaResource        : file://<PROJECT>/app/src/firstAbc/res
            JavaResource        : file://<PROJECT>/app/src/firstAbc/resources
            JavaSource          : file://<PROJECT>/app/src/firstAbc/rs
            JavaSource          : file://<PROJECT>/app/src/firstAbc/shaders
            JavaResource        : file://<PROJECT>/app/src/firstAbcSecondAbc
            JavaSource          : file://<PROJECT>/app/src/firstAbcSecondAbc/aidl
            JavaResource        : file://<PROJECT>/app/src/firstAbcSecondAbc/assets
            JavaSource          : file://<PROJECT>/app/src/firstAbcSecondAbc/java
            JavaSource          : file://<PROJECT>/app/src/firstAbcSecondAbc/jni
            JavaResource        : file://<PROJECT>/app/src/firstAbcSecondAbc/res
            JavaResource        : file://<PROJECT>/app/src/firstAbcSecondAbc/resources
            JavaSource          : file://<PROJECT>/app/src/firstAbcSecondAbc/rs
            JavaSource          : file://<PROJECT>/app/src/firstAbcSecondAbc/shaders
            JavaResource        : file://<PROJECT>/app/src/firstAbcSecondAbcDebug
            JavaSource          : file://<PROJECT>/app/src/firstAbcSecondAbcDebug/aidl
            JavaResource        : file://<PROJECT>/app/src/firstAbcSecondAbcDebug/assets
            JavaSource          : file://<PROJECT>/app/src/firstAbcSecondAbcDebug/java
            JavaSource          : file://<PROJECT>/app/src/firstAbcSecondAbcDebug/jni
            JavaResource        : file://<PROJECT>/app/src/firstAbcSecondAbcDebug/res
            JavaResource        : file://<PROJECT>/app/src/firstAbcSecondAbcDebug/resources
            JavaSource          : file://<PROJECT>/app/src/firstAbcSecondAbcDebug/rs
            JavaSource          : file://<PROJECT>/app/src/firstAbcSecondAbcDebug/shaders
            JavaResource        : file://<PROJECT>/app/src/main
            JavaSource          : file://<PROJECT>/app/src/main/aidl
            JavaResource        : file://<PROJECT>/app/src/main/assets
            JavaSource          : file://<PROJECT>/app/src/main/java
            JavaSource          : file://<PROJECT>/app/src/main/jni
            JavaResource        : file://<PROJECT>/app/src/main/res
            JavaResource        : file://<PROJECT>/app/src/main/resources
            JavaSource          : file://<PROJECT>/app/src/main/rs
            JavaSource          : file://<PROJECT>/app/src/main/shaders
            JavaResource        : file://<PROJECT>/app/src/secondAbc
            JavaSource          : file://<PROJECT>/app/src/secondAbc/aidl
            JavaResource        : file://<PROJECT>/app/src/secondAbc/assets
            JavaSource          : file://<PROJECT>/app/src/secondAbc/java
            JavaSource          : file://<PROJECT>/app/src/secondAbc/jni
            JavaResource        : file://<PROJECT>/app/src/secondAbc/res
            JavaResource        : file://<PROJECT>/app/src/secondAbc/resources
            JavaSource          : file://<PROJECT>/app/src/secondAbc/rs
            JavaSource          : file://<PROJECT>/app/src/secondAbc/shaders
            JavaResource (test) : file://<PROJECT>/app/src/test
            JavaSource (test)   : file://<PROJECT>/app/src/test/aidl
            JavaResource (test) : file://<PROJECT>/app/src/test/assets
            JavaSource (test)   : file://<PROJECT>/app/src/test/java
            JavaSource (test)   : file://<PROJECT>/app/src/test/jni
            JavaResource (test) : file://<PROJECT>/app/src/test/res
            JavaResource (test) : file://<PROJECT>/app/src/test/resources
            JavaSource (test)   : file://<PROJECT>/app/src/test/rs
            JavaSource (test)   : file://<PROJECT>/app/src/test/shaders
            JavaResource (test) : file://<PROJECT>/app/src/testDebug
            JavaSource (test)   : file://<PROJECT>/app/src/testDebug/aidl
            JavaResource (test) : file://<PROJECT>/app/src/testDebug/assets
            JavaSource (test)   : file://<PROJECT>/app/src/testDebug/java
            JavaSource (test)   : file://<PROJECT>/app/src/testDebug/jni
            JavaResource (test) : file://<PROJECT>/app/src/testDebug/res
            JavaResource (test) : file://<PROJECT>/app/src/testDebug/resources
            JavaSource (test)   : file://<PROJECT>/app/src/testDebug/rs
            JavaSource (test)   : file://<PROJECT>/app/src/testDebug/shaders
            JavaResource (test) : file://<PROJECT>/app/src/testFirstAbc
            JavaSource (test)   : file://<PROJECT>/app/src/testFirstAbc/aidl
            JavaResource (test) : file://<PROJECT>/app/src/testFirstAbc/assets
            JavaSource (test)   : file://<PROJECT>/app/src/testFirstAbc/java
            JavaSource (test)   : file://<PROJECT>/app/src/testFirstAbc/jni
            JavaResource (test) : file://<PROJECT>/app/src/testFirstAbc/res
            JavaResource (test) : file://<PROJECT>/app/src/testFirstAbc/resources
            JavaSource (test)   : file://<PROJECT>/app/src/testFirstAbc/rs
            JavaSource (test)   : file://<PROJECT>/app/src/testFirstAbc/shaders
            JavaResource (test) : file://<PROJECT>/app/src/testFirstAbcSecondAbc
            JavaSource (test)   : file://<PROJECT>/app/src/testFirstAbcSecondAbc/aidl
            JavaResource (test) : file://<PROJECT>/app/src/testFirstAbcSecondAbc/assets
            JavaSource (test)   : file://<PROJECT>/app/src/testFirstAbcSecondAbc/java
            JavaSource (test)   : file://<PROJECT>/app/src/testFirstAbcSecondAbc/jni
            JavaResource (test) : file://<PROJECT>/app/src/testFirstAbcSecondAbc/res
            JavaResource (test) : file://<PROJECT>/app/src/testFirstAbcSecondAbc/resources
            JavaSource (test)   : file://<PROJECT>/app/src/testFirstAbcSecondAbc/rs
            JavaSource (test)   : file://<PROJECT>/app/src/testFirstAbcSecondAbc/shaders
            JavaResource (test) : file://<PROJECT>/app/src/testFirstAbcSecondAbcDebug
            JavaSource (test)   : file://<PROJECT>/app/src/testFirstAbcSecondAbcDebug/aidl
            JavaResource (test) : file://<PROJECT>/app/src/testFirstAbcSecondAbcDebug/assets
            JavaSource (test)   : file://<PROJECT>/app/src/testFirstAbcSecondAbcDebug/java
            JavaSource (test)   : file://<PROJECT>/app/src/testFirstAbcSecondAbcDebug/jni
            JavaResource (test) : file://<PROJECT>/app/src/testFirstAbcSecondAbcDebug/res
            JavaResource (test) : file://<PROJECT>/app/src/testFirstAbcSecondAbcDebug/resources
            JavaSource (test)   : file://<PROJECT>/app/src/testFirstAbcSecondAbcDebug/rs
            JavaSource (test)   : file://<PROJECT>/app/src/testFirstAbcSecondAbcDebug/shaders
            JavaResource (test) : file://<PROJECT>/app/src/testSecondAbc
            JavaSource (test)   : file://<PROJECT>/app/src/testSecondAbc/aidl
            JavaResource (test) : file://<PROJECT>/app/src/testSecondAbc/assets
            JavaSource (test)   : file://<PROJECT>/app/src/testSecondAbc/java
            JavaSource (test)   : file://<PROJECT>/app/src/testSecondAbc/jni
            JavaResource (test) : file://<PROJECT>/app/src/testSecondAbc/res
            JavaResource (test) : file://<PROJECT>/app/src/testSecondAbc/resources
            JavaSource (test)   : file://<PROJECT>/app/src/testSecondAbc/rs
            JavaSource (test)   : file://<PROJECT>/app/src/testSecondAbc/shaders
            EXCLUDE_FOLDER      : file://<PROJECT>/app/.gradle [-]
            EXCLUDE_FOLDER      : file://<PROJECT>/app/build
        JDK                 : <NAME_CUT> Android SDK
        *isInherited        : false
            SdkType             : Android SDK
            HomePath            : <ANDROID_SDK>
            VersionString       : java version "<JDK_VERSION>"
        ORDER_ENTRY         : <Module source>
        LIBRARY             : Gradle: androidx.activity:activity:1.0.0@aar
            LibraryLevel        : project
            IsModuleLevel       : false
            Scope               : Compile
            IsExported          : false
            Name                : Gradle: androidx.activity:activity:1.0.0@aar [=]
            *CLASSES            : file://<GRADLE>/caches/transforms-2/files-2.1/xxxxxxxxxxxxxxxxxxxxxxxxxxxxxxxx/jetified-activity-1.0.0/AndroidManifest.xml
            *CLASSES            : file://<GRADLE>/caches/transforms-2/files-2.1/xxxxxxxxxxxxxxxxxxxxxxxxxxxxxxxx/jetified-activity-1.0.0/res [-]
            *CLASSES            : jar://<GRADLE>/caches/transforms-2/files-2.1/xxxxxxxxxxxxxxxxxxxxxxxxxxxxxxxx/jetified-activity-1.0.0/jars/classes.jar!/
        LIBRARY             : Gradle: androidx.annotation:annotation:1.1.0
            LibraryLevel        : project
            IsModuleLevel       : false
            Scope               : Compile
            IsExported          : false
            Name                : Gradle: androidx.annotation:annotation:1.1.0 [=]
            *CLASSES            : jar://<M2>/androidx/annotation/annotation/1.1.0/annotation-1.1.0.jar!/
        LIBRARY             : Gradle: androidx.appcompat:appcompat-resources:1.1.0@aar
            LibraryLevel        : project
            IsModuleLevel       : false
            Scope               : Compile
            IsExported          : false
            Name                : Gradle: androidx.appcompat:appcompat-resources:1.1.0@aar [=]
            *CLASSES            : file://<GRADLE>/caches/transforms-2/files-2.1/xxxxxxxxxxxxxxxxxxxxxxxxxxxxxxxx/jetified-appcompat-resources-1.1.0/AndroidManifest.xml
            *CLASSES            : file://<GRADLE>/caches/transforms-2/files-2.1/xxxxxxxxxxxxxxxxxxxxxxxxxxxxxxxx/jetified-appcompat-resources-1.1.0/res
            *CLASSES            : jar://<GRADLE>/caches/transforms-2/files-2.1/xxxxxxxxxxxxxxxxxxxxxxxxxxxxxxxx/jetified-appcompat-resources-1.1.0/jars/classes.jar!/
        LIBRARY             : Gradle: androidx.appcompat:appcompat:1.1.0@aar
            LibraryLevel        : project
            IsModuleLevel       : false
            Scope               : Compile
            IsExported          : false
            Name                : Gradle: androidx.appcompat:appcompat:1.1.0@aar [=]
            *CLASSES            : file://<GRADLE>/caches/transforms-2/files-2.1/xxxxxxxxxxxxxxxxxxxxxxxxxxxxxxxx/appcompat-1.1.0/AndroidManifest.xml
            *CLASSES            : file://<GRADLE>/caches/transforms-2/files-2.1/xxxxxxxxxxxxxxxxxxxxxxxxxxxxxxxx/appcompat-1.1.0/res
            *CLASSES            : jar://<GRADLE>/caches/transforms-2/files-2.1/xxxxxxxxxxxxxxxxxxxxxxxxxxxxxxxx/appcompat-1.1.0/jars/classes.jar!/
            *ANNOTATIONS        : jar://<GRADLE>/caches/transforms-2/files-2.1/xxxxxxxxxxxxxxxxxxxxxxxxxxxxxxxx/appcompat-1.1.0/annotations.zip!/
        LIBRARY             : Gradle: androidx.arch.core:core-common:2.1.0
            LibraryLevel        : project
            IsModuleLevel       : false
            Scope               : Compile
            IsExported          : false
            Name                : Gradle: androidx.arch.core:core-common:2.1.0 [=]
            *CLASSES            : jar://<M2>/androidx/arch/core/core-common/2.1.0/core-common-2.1.0.jar!/
        LIBRARY             : Gradle: androidx.arch.core:core-runtime:2.0.0@aar
            LibraryLevel        : project
            IsModuleLevel       : false
            Scope               : Compile
            IsExported          : false
            Name                : Gradle: androidx.arch.core:core-runtime:2.0.0@aar [=]
            *CLASSES            : file://<GRADLE>/caches/transforms-2/files-2.1/xxxxxxxxxxxxxxxxxxxxxxxxxxxxxxxx/core-runtime-2.0.0/AndroidManifest.xml
            *CLASSES            : file://<GRADLE>/caches/transforms-2/files-2.1/xxxxxxxxxxxxxxxxxxxxxxxxxxxxxxxx/core-runtime-2.0.0/res [-]
            *CLASSES            : jar://<GRADLE>/caches/transforms-2/files-2.1/xxxxxxxxxxxxxxxxxxxxxxxxxxxxxxxx/core-runtime-2.0.0/jars/classes.jar!/
        LIBRARY             : Gradle: androidx.collection:collection:1.1.0
            LibraryLevel        : project
            IsModuleLevel       : false
            Scope               : Compile
            IsExported          : false
            Name                : Gradle: androidx.collection:collection:1.1.0 [=]
            *CLASSES            : jar://<M2>/androidx/collection/collection/1.1.0/collection-1.1.0.jar!/
        LIBRARY             : Gradle: androidx.constraintlayout:constraintlayout-solver:1.1.3
            LibraryLevel        : project
            IsModuleLevel       : false
            Scope               : Compile
            IsExported          : false
            Name                : Gradle: androidx.constraintlayout:constraintlayout-solver:1.1.3 [=]
            *CLASSES            : jar://<M2>/androidx/constraintlayout/constraintlayout-solver/1.1.3/constraintlayout-solver-1.1.3.jar!/
        LIBRARY             : Gradle: androidx.constraintlayout:constraintlayout:1.1.3@aar
            LibraryLevel        : project
            IsModuleLevel       : false
            Scope               : Compile
            IsExported          : false
            Name                : Gradle: androidx.constraintlayout:constraintlayout:1.1.3@aar [=]
            *CLASSES            : file://<GRADLE>/caches/transforms-2/files-2.1/xxxxxxxxxxxxxxxxxxxxxxxxxxxxxxxx/constraintlayout-1.1.3/AndroidManifest.xml
            *CLASSES            : file://<GRADLE>/caches/transforms-2/files-2.1/xxxxxxxxxxxxxxxxxxxxxxxxxxxxxxxx/constraintlayout-1.1.3/res
            *CLASSES            : jar://<GRADLE>/caches/transforms-2/files-2.1/xxxxxxxxxxxxxxxxxxxxxxxxxxxxxxxx/constraintlayout-1.1.3/jars/classes.jar!/
        LIBRARY             : Gradle: androidx.core:core:1.1.0@aar
            LibraryLevel        : project
            IsModuleLevel       : false
            Scope               : Compile
            IsExported          : false
            Name                : Gradle: androidx.core:core:1.1.0@aar [=]
            *CLASSES            : file://<GRADLE>/caches/transforms-2/files-2.1/xxxxxxxxxxxxxxxxxxxxxxxxxxxxxxxx/core-1.1.0/AndroidManifest.xml
            *CLASSES            : file://<GRADLE>/caches/transforms-2/files-2.1/xxxxxxxxxxxxxxxxxxxxxxxxxxxxxxxx/core-1.1.0/res
            *CLASSES            : jar://<GRADLE>/caches/transforms-2/files-2.1/xxxxxxxxxxxxxxxxxxxxxxxxxxxxxxxx/core-1.1.0/jars/classes.jar!/
            *ANNOTATIONS        : jar://<GRADLE>/caches/transforms-2/files-2.1/xxxxxxxxxxxxxxxxxxxxxxxxxxxxxxxx/core-1.1.0/annotations.zip!/
        LIBRARY             : Gradle: androidx.cursoradapter:cursoradapter:1.0.0@aar
            LibraryLevel        : project
            IsModuleLevel       : false
            Scope               : Compile
            IsExported          : false
            Name                : Gradle: androidx.cursoradapter:cursoradapter:1.0.0@aar [=]
            *CLASSES            : file://<GRADLE>/caches/transforms-2/files-2.1/xxxxxxxxxxxxxxxxxxxxxxxxxxxxxxxx/cursoradapter-1.0.0/AndroidManifest.xml
            *CLASSES            : file://<GRADLE>/caches/transforms-2/files-2.1/xxxxxxxxxxxxxxxxxxxxxxxxxxxxxxxx/cursoradapter-1.0.0/res [-]
            *CLASSES            : jar://<GRADLE>/caches/transforms-2/files-2.1/xxxxxxxxxxxxxxxxxxxxxxxxxxxxxxxx/cursoradapter-1.0.0/jars/classes.jar!/
        LIBRARY             : Gradle: androidx.customview:customview:1.0.0@aar
            LibraryLevel        : project
            IsModuleLevel       : false
            Scope               : Compile
            IsExported          : false
            Name                : Gradle: androidx.customview:customview:1.0.0@aar [=]
            *CLASSES            : file://<GRADLE>/caches/transforms-2/files-2.1/xxxxxxxxxxxxxxxxxxxxxxxxxxxxxxxx/customview-1.0.0/AndroidManifest.xml
            *CLASSES            : file://<GRADLE>/caches/transforms-2/files-2.1/xxxxxxxxxxxxxxxxxxxxxxxxxxxxxxxx/customview-1.0.0/res [-]
            *CLASSES            : jar://<GRADLE>/caches/transforms-2/files-2.1/xxxxxxxxxxxxxxxxxxxxxxxxxxxxxxxx/customview-1.0.0/jars/classes.jar!/
        LIBRARY             : Gradle: androidx.drawerlayout:drawerlayout:1.0.0@aar
            LibraryLevel        : project
            IsModuleLevel       : false
            Scope               : Compile
            IsExported          : false
            Name                : Gradle: androidx.drawerlayout:drawerlayout:1.0.0@aar [=]
            *CLASSES            : file://<GRADLE>/caches/transforms-2/files-2.1/xxxxxxxxxxxxxxxxxxxxxxxxxxxxxxxx/drawerlayout-1.0.0/AndroidManifest.xml
            *CLASSES            : file://<GRADLE>/caches/transforms-2/files-2.1/xxxxxxxxxxxxxxxxxxxxxxxxxxxxxxxx/drawerlayout-1.0.0/res [-]
            *CLASSES            : jar://<GRADLE>/caches/transforms-2/files-2.1/xxxxxxxxxxxxxxxxxxxxxxxxxxxxxxxx/drawerlayout-1.0.0/jars/classes.jar!/
            *ANNOTATIONS        : jar://<GRADLE>/caches/transforms-2/files-2.1/xxxxxxxxxxxxxxxxxxxxxxxxxxxxxxxx/drawerlayout-1.0.0/annotations.zip!/
        LIBRARY             : Gradle: androidx.fragment:fragment:1.1.0@aar
            LibraryLevel        : project
            IsModuleLevel       : false
            Scope               : Compile
            IsExported          : false
            Name                : Gradle: androidx.fragment:fragment:1.1.0@aar [=]
            *CLASSES            : file://<GRADLE>/caches/transforms-2/files-2.1/xxxxxxxxxxxxxxxxxxxxxxxxxxxxxxxx/fragment-1.1.0/AndroidManifest.xml
            *CLASSES            : file://<GRADLE>/caches/transforms-2/files-2.1/xxxxxxxxxxxxxxxxxxxxxxxxxxxxxxxx/fragment-1.1.0/res [-]
            *CLASSES            : jar://<GRADLE>/caches/transforms-2/files-2.1/xxxxxxxxxxxxxxxxxxxxxxxxxxxxxxxx/fragment-1.1.0/jars/classes.jar!/
            *ANNOTATIONS        : jar://<GRADLE>/caches/transforms-2/files-2.1/xxxxxxxxxxxxxxxxxxxxxxxxxxxxxxxx/fragment-1.1.0/annotations.zip!/
        LIBRARY             : Gradle: androidx.interpolator:interpolator:1.0.0@aar
            LibraryLevel        : project
            IsModuleLevel       : false
            Scope               : Compile
            IsExported          : false
            Name                : Gradle: androidx.interpolator:interpolator:1.0.0@aar [=]
            *CLASSES            : file://<GRADLE>/caches/transforms-2/files-2.1/xxxxxxxxxxxxxxxxxxxxxxxxxxxxxxxx/interpolator-1.0.0/AndroidManifest.xml
            *CLASSES            : file://<GRADLE>/caches/transforms-2/files-2.1/xxxxxxxxxxxxxxxxxxxxxxxxxxxxxxxx/interpolator-1.0.0/res [-]
            *CLASSES            : jar://<GRADLE>/caches/transforms-2/files-2.1/xxxxxxxxxxxxxxxxxxxxxxxxxxxxxxxx/interpolator-1.0.0/jars/classes.jar!/
        LIBRARY             : Gradle: androidx.lifecycle:lifecycle-common:2.1.0
            LibraryLevel        : project
            IsModuleLevel       : false
            Scope               : Compile
            IsExported          : false
            Name                : Gradle: androidx.lifecycle:lifecycle-common:2.1.0 [=]
            *CLASSES            : jar://<M2>/androidx/lifecycle/lifecycle-common/2.1.0/lifecycle-common-2.1.0.jar!/
        LIBRARY             : Gradle: androidx.lifecycle:lifecycle-livedata-core:2.0.0@aar
            LibraryLevel        : project
            IsModuleLevel       : false
            Scope               : Compile
            IsExported          : false
            Name                : Gradle: androidx.lifecycle:lifecycle-livedata-core:2.0.0@aar [=]
            *CLASSES            : file://<GRADLE>/caches/transforms-2/files-2.1/xxxxxxxxxxxxxxxxxxxxxxxxxxxxxxxx/lifecycle-livedata-core-2.0.0/AndroidManifest.xml
            *CLASSES            : file://<GRADLE>/caches/transforms-2/files-2.1/xxxxxxxxxxxxxxxxxxxxxxxxxxxxxxxx/lifecycle-livedata-core-2.0.0/res [-]
            *CLASSES            : jar://<GRADLE>/caches/transforms-2/files-2.1/xxxxxxxxxxxxxxxxxxxxxxxxxxxxxxxx/lifecycle-livedata-core-2.0.0/jars/classes.jar!/
        LIBRARY             : Gradle: androidx.lifecycle:lifecycle-livedata:2.0.0@aar
            LibraryLevel        : project
            IsModuleLevel       : false
            Scope               : Compile
            IsExported          : false
            Name                : Gradle: androidx.lifecycle:lifecycle-livedata:2.0.0@aar [=]
            *CLASSES            : file://<GRADLE>/caches/transforms-2/files-2.1/xxxxxxxxxxxxxxxxxxxxxxxxxxxxxxxx/lifecycle-livedata-2.0.0/AndroidManifest.xml
            *CLASSES            : file://<GRADLE>/caches/transforms-2/files-2.1/xxxxxxxxxxxxxxxxxxxxxxxxxxxxxxxx/lifecycle-livedata-2.0.0/res [-]
            *CLASSES            : jar://<GRADLE>/caches/transforms-2/files-2.1/xxxxxxxxxxxxxxxxxxxxxxxxxxxxxxxx/lifecycle-livedata-2.0.0/jars/classes.jar!/
        LIBRARY             : Gradle: androidx.lifecycle:lifecycle-runtime:2.1.0@aar
            LibraryLevel        : project
            IsModuleLevel       : false
            Scope               : Compile
            IsExported          : false
            Name                : Gradle: androidx.lifecycle:lifecycle-runtime:2.1.0@aar [=]
            *CLASSES            : file://<GRADLE>/caches/transforms-2/files-2.1/xxxxxxxxxxxxxxxxxxxxxxxxxxxxxxxx/lifecycle-runtime-2.1.0/AndroidManifest.xml
            *CLASSES            : file://<GRADLE>/caches/transforms-2/files-2.1/xxxxxxxxxxxxxxxxxxxxxxxxxxxxxxxx/lifecycle-runtime-2.1.0/res [-]
            *CLASSES            : jar://<GRADLE>/caches/transforms-2/files-2.1/xxxxxxxxxxxxxxxxxxxxxxxxxxxxxxxx/lifecycle-runtime-2.1.0/jars/classes.jar!/
        LIBRARY             : Gradle: androidx.lifecycle:lifecycle-viewmodel:2.1.0@aar
            LibraryLevel        : project
            IsModuleLevel       : false
            Scope               : Compile
            IsExported          : false
            Name                : Gradle: androidx.lifecycle:lifecycle-viewmodel:2.1.0@aar [=]
            *CLASSES            : file://<GRADLE>/caches/transforms-2/files-2.1/xxxxxxxxxxxxxxxxxxxxxxxxxxxxxxxx/lifecycle-viewmodel-2.1.0/AndroidManifest.xml
            *CLASSES            : file://<GRADLE>/caches/transforms-2/files-2.1/xxxxxxxxxxxxxxxxxxxxxxxxxxxxxxxx/lifecycle-viewmodel-2.1.0/res [-]
            *CLASSES            : jar://<GRADLE>/caches/transforms-2/files-2.1/xxxxxxxxxxxxxxxxxxxxxxxxxxxxxxxx/lifecycle-viewmodel-2.1.0/jars/classes.jar!/
        LIBRARY             : Gradle: androidx.loader:loader:1.0.0@aar
            LibraryLevel        : project
            IsModuleLevel       : false
            Scope               : Compile
            IsExported          : false
            Name                : Gradle: androidx.loader:loader:1.0.0@aar [=]
            *CLASSES            : file://<GRADLE>/caches/transforms-2/files-2.1/xxxxxxxxxxxxxxxxxxxxxxxxxxxxxxxx/loader-1.0.0/AndroidManifest.xml
            *CLASSES            : file://<GRADLE>/caches/transforms-2/files-2.1/xxxxxxxxxxxxxxxxxxxxxxxxxxxxxxxx/loader-1.0.0/res [-]
            *CLASSES            : jar://<GRADLE>/caches/transforms-2/files-2.1/xxxxxxxxxxxxxxxxxxxxxxxxxxxxxxxx/loader-1.0.0/jars/classes.jar!/
        LIBRARY             : Gradle: androidx.savedstate:savedstate:1.0.0@aar
            LibraryLevel        : project
            IsModuleLevel       : false
            Scope               : Compile
            IsExported          : false
            Name                : Gradle: androidx.savedstate:savedstate:1.0.0@aar [=]
            *CLASSES            : file://<GRADLE>/caches/transforms-2/files-2.1/xxxxxxxxxxxxxxxxxxxxxxxxxxxxxxxx/jetified-savedstate-1.0.0/AndroidManifest.xml
            *CLASSES            : file://<GRADLE>/caches/transforms-2/files-2.1/xxxxxxxxxxxxxxxxxxxxxxxxxxxxxxxx/jetified-savedstate-1.0.0/res [-]
            *CLASSES            : jar://<GRADLE>/caches/transforms-2/files-2.1/xxxxxxxxxxxxxxxxxxxxxxxxxxxxxxxx/jetified-savedstate-1.0.0/jars/classes.jar!/
        LIBRARY             : Gradle: androidx.test.espresso:espresso-core:3.2.0@aar
            LibraryLevel        : project
            IsModuleLevel       : false
            Scope               : Test
            IsExported          : false
            Name                : Gradle: androidx.test.espresso:espresso-core:3.2.0@aar [=]
            *CLASSES            : file://<GRADLE>/caches/transforms-2/files-2.1/xxxxxxxxxxxxxxxxxxxxxxxxxxxxxxxx/espresso-core-3.2.0/AndroidManifest.xml
            *CLASSES            : file://<GRADLE>/caches/transforms-2/files-2.1/xxxxxxxxxxxxxxxxxxxxxxxxxxxxxxxx/espresso-core-3.2.0/res [-]
            *CLASSES            : jar://<GRADLE>/caches/transforms-2/files-2.1/xxxxxxxxxxxxxxxxxxxxxxxxxxxxxxxx/espresso-core-3.2.0/jars/classes.jar!/
        LIBRARY             : Gradle: androidx.test.espresso:espresso-idling-resource:3.2.0@aar
            LibraryLevel        : project
            IsModuleLevel       : false
            Scope               : Test
            IsExported          : false
            Name                : Gradle: androidx.test.espresso:espresso-idling-resource:3.2.0@aar [=]
            *CLASSES            : file://<GRADLE>/caches/transforms-2/files-2.1/xxxxxxxxxxxxxxxxxxxxxxxxxxxxxxxx/espresso-idling-resource-3.2.0/AndroidManifest.xml
            *CLASSES            : file://<GRADLE>/caches/transforms-2/files-2.1/xxxxxxxxxxxxxxxxxxxxxxxxxxxxxxxx/espresso-idling-resource-3.2.0/res [-]
            *CLASSES            : jar://<GRADLE>/caches/transforms-2/files-2.1/xxxxxxxxxxxxxxxxxxxxxxxxxxxxxxxx/espresso-idling-resource-3.2.0/jars/classes.jar!/
        LIBRARY             : Gradle: androidx.test.ext:junit:1.1.1@aar
            LibraryLevel        : project
            IsModuleLevel       : false
            Scope               : Test
            IsExported          : false
            Name                : Gradle: androidx.test.ext:junit:1.1.1@aar [=]
            *CLASSES            : file://<GRADLE>/caches/transforms-2/files-2.1/xxxxxxxxxxxxxxxxxxxxxxxxxxxxxxxx/jetified-junit-1.1.1/AndroidManifest.xml
            *CLASSES            : file://<GRADLE>/caches/transforms-2/files-2.1/xxxxxxxxxxxxxxxxxxxxxxxxxxxxxxxx/jetified-junit-1.1.1/res [-]
            *CLASSES            : jar://<GRADLE>/caches/transforms-2/files-2.1/xxxxxxxxxxxxxxxxxxxxxxxxxxxxxxxx/jetified-junit-1.1.1/jars/classes.jar!/
        LIBRARY             : Gradle: androidx.test:core:1.2.0@aar
            LibraryLevel        : project
            IsModuleLevel       : false
            Scope               : Test
            IsExported          : false
            Name                : Gradle: androidx.test:core:1.2.0@aar [=]
            *CLASSES            : file://<GRADLE>/caches/transforms-2/files-2.1/xxxxxxxxxxxxxxxxxxxxxxxxxxxxxxxx/jetified-core-1.2.0/AndroidManifest.xml
            *CLASSES            : file://<GRADLE>/caches/transforms-2/files-2.1/xxxxxxxxxxxxxxxxxxxxxxxxxxxxxxxx/jetified-core-1.2.0/res [-]
            *CLASSES            : jar://<GRADLE>/caches/transforms-2/files-2.1/xxxxxxxxxxxxxxxxxxxxxxxxxxxxxxxx/jetified-core-1.2.0/jars/classes.jar!/
        LIBRARY             : Gradle: androidx.test:monitor:1.2.0@aar
            LibraryLevel        : project
            IsModuleLevel       : false
            Scope               : Test
            IsExported          : false
            Name                : Gradle: androidx.test:monitor:1.2.0@aar [=]
            *CLASSES            : file://<GRADLE>/caches/transforms-2/files-2.1/xxxxxxxxxxxxxxxxxxxxxxxxxxxxxxxx/monitor-1.2.0/AndroidManifest.xml
            *CLASSES            : file://<GRADLE>/caches/transforms-2/files-2.1/xxxxxxxxxxxxxxxxxxxxxxxxxxxxxxxx/monitor-1.2.0/res [-]
            *CLASSES            : jar://<GRADLE>/caches/transforms-2/files-2.1/xxxxxxxxxxxxxxxxxxxxxxxxxxxxxxxx/monitor-1.2.0/jars/classes.jar!/
        LIBRARY             : Gradle: androidx.test:runner:1.2.0@aar
            LibraryLevel        : project
            IsModuleLevel       : false
            Scope               : Test
            IsExported          : false
            Name                : Gradle: androidx.test:runner:1.2.0@aar [=]
            *CLASSES            : file://<GRADLE>/caches/transforms-2/files-2.1/xxxxxxxxxxxxxxxxxxxxxxxxxxxxxxxx/runner-1.2.0/AndroidManifest.xml
            *CLASSES            : file://<GRADLE>/caches/transforms-2/files-2.1/xxxxxxxxxxxxxxxxxxxxxxxxxxxxxxxx/runner-1.2.0/res [-]
            *CLASSES            : jar://<GRADLE>/caches/transforms-2/files-2.1/xxxxxxxxxxxxxxxxxxxxxxxxxxxxxxxx/runner-1.2.0/jars/classes.jar!/
        LIBRARY             : Gradle: androidx.vectordrawable:vectordrawable-animated:1.1.0@aar
            LibraryLevel        : project
            IsModuleLevel       : false
            Scope               : Compile
            IsExported          : false
            Name                : Gradle: androidx.vectordrawable:vectordrawable-animated:1.1.0@aar [=]
            *CLASSES            : file://<GRADLE>/caches/transforms-2/files-2.1/xxxxxxxxxxxxxxxxxxxxxxxxxxxxxxxx/vectordrawable-animated-1.1.0/AndroidManifest.xml
            *CLASSES            : file://<GRADLE>/caches/transforms-2/files-2.1/xxxxxxxxxxxxxxxxxxxxxxxxxxxxxxxx/vectordrawable-animated-1.1.0/res [-]
            *CLASSES            : jar://<GRADLE>/caches/transforms-2/files-2.1/xxxxxxxxxxxxxxxxxxxxxxxxxxxxxxxx/vectordrawable-animated-1.1.0/jars/classes.jar!/
        LIBRARY             : Gradle: androidx.vectordrawable:vectordrawable:1.1.0@aar
            LibraryLevel        : project
            IsModuleLevel       : false
            Scope               : Compile
            IsExported          : false
            Name                : Gradle: androidx.vectordrawable:vectordrawable:1.1.0@aar [=]
            *CLASSES            : file://<GRADLE>/caches/transforms-2/files-2.1/xxxxxxxxxxxxxxxxxxxxxxxxxxxxxxxx/vectordrawable-1.1.0/AndroidManifest.xml
            *CLASSES            : file://<GRADLE>/caches/transforms-2/files-2.1/xxxxxxxxxxxxxxxxxxxxxxxxxxxxxxxx/vectordrawable-1.1.0/res [-]
            *CLASSES            : jar://<GRADLE>/caches/transforms-2/files-2.1/xxxxxxxxxxxxxxxxxxxxxxxxxxxxxxxx/vectordrawable-1.1.0/jars/classes.jar!/
        LIBRARY             : Gradle: androidx.versionedparcelable:versionedparcelable:1.1.0@aar
            LibraryLevel        : project
            IsModuleLevel       : false
            Scope               : Compile
            IsExported          : false
            Name                : Gradle: androidx.versionedparcelable:versionedparcelable:1.1.0@aar [=]
            *CLASSES            : file://<GRADLE>/caches/transforms-2/files-2.1/xxxxxxxxxxxxxxxxxxxxxxxxxxxxxxxx/versionedparcelable-1.1.0/AndroidManifest.xml
            *CLASSES            : file://<GRADLE>/caches/transforms-2/files-2.1/xxxxxxxxxxxxxxxxxxxxxxxxxxxxxxxx/versionedparcelable-1.1.0/res [-]
            *CLASSES            : jar://<GRADLE>/caches/transforms-2/files-2.1/xxxxxxxxxxxxxxxxxxxxxxxxxxxxxxxx/versionedparcelable-1.1.0/jars/classes.jar!/
        LIBRARY             : Gradle: androidx.viewpager:viewpager:1.0.0@aar
            LibraryLevel        : project
            IsModuleLevel       : false
            Scope               : Compile
            IsExported          : false
            Name                : Gradle: androidx.viewpager:viewpager:1.0.0@aar [=]
            *CLASSES            : file://<GRADLE>/caches/transforms-2/files-2.1/xxxxxxxxxxxxxxxxxxxxxxxxxxxxxxxx/viewpager-1.0.0/AndroidManifest.xml
            *CLASSES            : file://<GRADLE>/caches/transforms-2/files-2.1/xxxxxxxxxxxxxxxxxxxxxxxxxxxxxxxx/viewpager-1.0.0/res [-]
            *CLASSES            : jar://<GRADLE>/caches/transforms-2/files-2.1/xxxxxxxxxxxxxxxxxxxxxxxxxxxxxxxx/viewpager-1.0.0/jars/classes.jar!/
        LIBRARY             : Gradle: com.google.code.findbugs:jsr305:2.0.1
            LibraryLevel        : project
            IsModuleLevel       : false
            Scope               : Test
            IsExported          : false
            Name                : Gradle: com.google.code.findbugs:jsr305:2.0.1 [=]
            *CLASSES            : jar://<M2>/com/google/code/findbugs/jsr305/2.0.1/jsr305-2.0.1.jar!/
        LIBRARY             : Gradle: com.squareup:javawriter:2.1.1
            LibraryLevel        : project
            IsModuleLevel       : false
            Scope               : Test
            IsExported          : false
            Name                : Gradle: com.squareup:javawriter:2.1.1 [=]
            *CLASSES            : jar://<M2>/com/squareup/javawriter/2.1.1/javawriter-2.1.1.jar!/
        LIBRARY             : Gradle: javax.inject:javax.inject:1
            LibraryLevel        : project
            IsModuleLevel       : false
            Scope               : Test
            IsExported          : false
            Name                : Gradle: javax.inject:javax.inject:1 [=]
            *CLASSES            : jar://<M2>/javax/inject/javax.inject/1/javax.inject-1.jar!/
        LIBRARY             : Gradle: junit:junit:4.12
            LibraryLevel        : project
            IsModuleLevel       : false
            Scope               : Test
            IsExported          : false
            Name                : Gradle: junit:junit:4.12 [=]
            *CLASSES            : jar://<M2>/junit/junit/4.12/junit-4.12.jar!/
        LIBRARY             : Gradle: net.sf.kxml:kxml2:2.3.0
            LibraryLevel        : project
            IsModuleLevel       : false
            Scope               : Test
            IsExported          : false
            Name                : Gradle: net.sf.kxml:kxml2:2.3.0 [=]
            *CLASSES            : jar://<M2>/net/sf/kxml/kxml2/2.3.0/kxml2-2.3.0.jar!/
        LIBRARY             : Gradle: org.hamcrest:hamcrest-core:1.3
            LibraryLevel        : project
            IsModuleLevel       : false
            Scope               : Test
            IsExported          : false
            Name                : Gradle: org.hamcrest:hamcrest-core:1.3 [=]
            *CLASSES            : jar://<M2>/org/hamcrest/hamcrest-core/1.3/hamcrest-core-1.3.jar!/
        LIBRARY             : Gradle: org.hamcrest:hamcrest-integration:1.3
            LibraryLevel        : project
            IsModuleLevel       : false
            Scope               : Test
            IsExported          : false
            Name                : Gradle: org.hamcrest:hamcrest-integration:1.3 [=]
            *CLASSES            : jar://<M2>/org/hamcrest/hamcrest-integration/1.3/hamcrest-integration-1.3.jar!/
        LIBRARY             : Gradle: org.hamcrest:hamcrest-library:1.3
            LibraryLevel        : project
            IsModuleLevel       : false
            Scope               : Test
            IsExported          : false
            Name                : Gradle: org.hamcrest:hamcrest-library:1.3 [=]
            *CLASSES            : jar://<M2>/org/hamcrest/hamcrest-library/1.3/hamcrest-library-1.3.jar!/